{"pagination":{"currentPage":1,"pageSize":12,"totalPages":1978,"totalItems":23731},"styles":[{"id":8097,"name":"WY","description":"Map style for WY default color scheme","url":"https://snazzymaps.com/style/8097/wy","imageUrl":"https://snazzy-maps-cdn.azureedge.net/assets/8097-wy.png?v=20170626083314","json":"[{\"featureType\":\"all\",\"elementType\":\"geometry.fill\",\"stylers\":[{\"weight\":\"2.00\"}]},{\"featureType\":\"all\",\"elementType\":\"geometry.stroke\",\"stylers\":[{\"color\":\"#9c9c9c\"}]},{\"featureType\":\"all\",\"elementType\":\"labels.text\",\"stylers\":[{\"visibility\":\"on\"}]},{\"featureType\":\"landscape\",\"elementType\":\"all\",\"stylers\":[{\"color\":\"#f2f2f2\"}]},{\"featureType\":\"landscape\",\"elementType\":\"geometry.fill\",\"stylers\":[{\"color\":\"#ffffff\"}]},{\"featureType\":\"landscape.man_made\",\"elementType\":\"geometry.fill\",\"stylers\":[{\"color\":\"#ffffff\"}]},{\"featureType\":\"poi\",\"elementType\":\"all\",\"stylers\":[{\"visibility\":\"off\"}]},{\"featureType\":\"road\",\"elementType\":\"all\",\"stylers\":[{\"saturation\":-100},{\"lightness\":45}]},{\"featureType\":\"road\",\"elementType\":\"geometry.fill\",\"stylers\":[{\"color\":\"#eeeeee\"}]},{\"featureType\":\"road\",\"elementType\":\"labels.text.fill\",\"stylers\":[{\"color\":\"#7b7b7b\"}]},{\"featureType\":\"road\",\"elementType\":\"labels.text.stroke\",\"stylers\":[{\"color\":\"#ffffff\"}]},{\"featureType\":\"road.highway\",\"elementType\":\"all\",\"stylers\":[{\"visibility\":\"simplified\"}]},{\"featureType\":\"road.arterial\",\"elementType\":\"labels.icon\",\"stylers\":[{\"visibility\":\"off\"}]},{\"featureType\":\"transit\",\"elementType\":\"all\",\"stylers\":[{\"visibility\":\"off\"}]},{\"featureType\":\"water\",\"elementType\":\"all\",\"stylers\":[{\"color\":\"#46bcec\"},{\"visibility\":\"on\"}]},{\"featureType\":\"water\",\"elementType\":\"geometry.fill\",\"stylers\":[{\"color\":\"#c8d7d4\"}]},{\"featureType\":\"water\",\"elementType\":\"labels.text.fill\",\"stylers\":[{\"color\":\"#070707\"}]},{\"featureType\":\"water\",\"elementType\":\"labels.text.stroke\",\"stylers\":[{\"color\":\"#ffffff\"}]}]","views":3010477,"favorites":7391,"createdBy":{"name":"StipeP","url":null},"createdOn":"2015-02-13T16:12:31.48","tags":["greyscale","light","monochrome"],"colors":["multi"]},{"id":151,"name":"Ultra Light with Labels","description":"Light Rust","url":"https://snazzymaps.com/style/151/ultra-light-with-labels","imageUrl":"https://snazzy-maps-cdn.azureedge.net/assets/151-ultra-light-with-labels.png?v=20170626083737","json":"[{\"featureType\":\"water\",\"elementType\":\"geometry\",\"stylers\":[{\"color\":\"#e9e9e9\"},{\"lightness\":17}]},{\"featureType\":\"landscape\",\"elementType\":\"geometry\",\"stylers\":[{\"color\":\"#f5f5f5\"},{\"lightness\":20}]},{\"featureType\":\"road.highway\",\"elementType\":\"geometry.fill\",\"stylers\":[{\"color\":\"#ffffff\"},{\"lightness\":17}]},{\"featureType\":\"road.highway\",\"elementType\":\"geometry.stroke\",\"stylers\":[{\"color\":\"#ffffff\"},{\"lightness\":29},{\"weight\":0.2}]},{\"featureType\":\"road.arterial\",\"elementType\":\"geometry\",\"stylers\":[{\"color\":\"#ffffff\"},{\"lightness\":18}]},{\"featureType\":\"road.local\",\"elementType\":\"geometry\",\"stylers\":[{\"color\":\"#ffffff\"},{\"lightness\":16}]},{\"featureType\":\"poi\",\"elementType\":\"geometry\",\"stylers\":[{\"color\":\"#f5f5f5\"},{\"lightness\":21}]},{\"featureType\":\"poi.park\",\"elementType\":\"geometry\",\"stylers\":[{\"color\":\"#dedede\"},{\"lightness\":21}]},{\"elementType\":\"labels.text.stroke\",\"stylers\":[{\"visibility\":\"on\"},{\"color\":\"#ffffff\"},{\"lightness\":16}]},{\"elementType\":\"labels.text.fill\",\"stylers\":[{\"saturation\":36},{\"color\":\"#333333\"},{\"lightness\":40}]},{\"elementType\":\"labels.icon\",\"stylers\":[{\"visibility\":\"off\"}]},{\"featureType\":\"transit\",\"elementType\":\"geometry\",\"stylers\":[{\"color\":\"#f2f2f2\"},{\"lightness\":19}]},{\"featureType\":\"administrative\",\"elementType\":\"geometry.fill\",\"stylers\":[{\"color\":\"#fefefe\"},{\"lightness\":20}]},{\"featureType\":\"administrative\",\"elementType\":\"geometry.stroke\",\"stylers\":[{\"color\":\"#fefefe\"},{\"lightness\":17},{\"weight\":1.2}]}]","views":2247553,"favorites":6528,"createdBy":{"name":"Anonymous","url":null},"createdOn":"2014-11-04T03:01:33.197","tags":["greyscale","light"],"colors":["gray","white"]},{"id":15,"name":"Subtle Grayscale","description":"A nice, simple grayscale version of the map with color extremes that are never too harsh on the eyes. Originally created for http://barvinssurvins.fr/situer.","url":"https://snazzymaps.com/style/15/subtle-grayscale","imageUrl":"https://snazzy-maps-cdn.azureedge.net/assets/15-subtle-grayscale.png?v=20170626083535","json":"[{\"featureType\":\"administrative\",\"elementType\":\"all\",\"stylers\":[{\"saturation\":\"-100\"}]},{\"featureType\":\"administrative.province\",\"elementType\":\"all\",\"stylers\":[{\"visibility\":\"off\"}]},{\"featureType\":\"landscape\",\"elementType\":\"all\",\"stylers\":[{\"saturation\":-100},{\"lightness\":65},{\"visibility\":\"on\"}]},{\"featureType\":\"poi\",\"elementType\":\"all\",\"stylers\":[{\"saturation\":-100},{\"lightness\":\"50\"},{\"visibility\":\"simplified\"}]},{\"featureType\":\"road\",\"elementType\":\"all\",\"stylers\":[{\"saturation\":\"-100\"}]},{\"featureType\":\"road.highway\",\"elementType\":\"all\",\"stylers\":[{\"visibility\":\"simplified\"}]},{\"featureType\":\"road.arterial\",\"elementType\":\"all\",\"stylers\":[{\"lightness\":\"30\"}]},{\"featureType\":\"road.local\",\"elementType\":\"all\",\"stylers\":[{\"lightness\":\"40\"}]},{\"featureType\":\"transit\",\"elementType\":\"all\",\"stylers\":[{\"saturation\":-100},{\"visibility\":\"simplified\"}]},{\"featureType\":\"water\",\"elementType\":\"geometry\",\"stylers\":[{\"hue\":\"#ffff00\"},{\"lightness\":-25},{\"saturation\":-97}]},{\"featureType\":\"water\",\"elementType\":\"labels\",\"stylers\":[{\"lightness\":-25},{\"saturation\":-100}]}]","views":1452934,"favorites":3741,"createdBy":{"name":"Paulo Avila","url":null},"createdOn":"2013-10-30T16:37:24.593","tags":["greyscale","light"],"colors":["gray","white"]},{"id":1243,"name":"Interface map","description":"User Interface design mapping or UI design mapping\r\n user experience map\r\n\r\n","url":"https://snazzymaps.com/style/1243/xxxxxxxxxxx","imageUrl":"https://snazzy-maps-cdn.azureedge.net/assets/1243-xxxxxxxxxxx.png?v=20220106114208","json":"[{\"featureType\":\"all\",\"elementType\":\"labels.text\",\"stylers\":[{\"color\":\"#878787\"}]},{\"featureType\":\"all\",\"elementType\":\"labels.text.stroke\",\"stylers\":[{\"visibility\":\"off\"}]},{\"featureType\":\"landscape\",\"elementType\":\"all\",\"stylers\":[{\"color\":\"#f9f5ed\"}]},{\"featureType\":\"road.highway\",\"elementType\":\"all\",\"stylers\":[{\"color\":\"#f5f5f5\"}]},{\"featureType\":\"road.highway\",\"elementType\":\"geometry.stroke\",\"stylers\":[{\"color\":\"#c9c9c9\"}]},{\"featureType\":\"water\",\"elementType\":\"all\",\"stylers\":[{\"color\":\"#aee0f4\"}]}]","views":1411091,"favorites":2452,"createdBy":{"name":"samisel","url":null},"createdOn":"2014-12-04T07:38:49.22","tags":[],"colors":["gray","multi"]},{"id":72543,"name":"Assassin's Creed IV","description":"Themed map matching the colors from Assassin's Creed IV.","url":"https://snazzymaps.com/style/72543/assassins-creed-iv","imageUrl":"https://snazzy-maps-cdn.azureedge.net/assets/72543-assassins-creed-iv.png?v=20170626083519","json":"[{\"featureType\":\"all\",\"elementType\":\"all\",\"stylers\":[{\"visibility\":\"on\"}]},{\"featureType\":\"all\",\"elementType\":\"labels\",\"stylers\":[{\"visibility\":\"off\"},{\"saturation\":\"-100\"}]},{\"featureType\":\"all\",\"elementType\":\"labels.text.fill\",\"stylers\":[{\"saturation\":36},{\"color\":\"#000000\"},{\"lightness\":40},{\"visibility\":\"off\"}]},{\"featureType\":\"all\",\"elementType\":\"labels.text.stroke\",\"stylers\":[{\"visibility\":\"off\"},{\"color\":\"#000000\"},{\"lightness\":16}]},{\"featureType\":\"all\",\"elementType\":\"labels.icon\",\"stylers\":[{\"visibility\":\"off\"}]},{\"featureType\":\"administrative\",\"elementType\":\"geometry.fill\",\"stylers\":[{\"color\":\"#000000\"},{\"lightness\":20}]},{\"featureType\":\"administrative\",\"elementType\":\"geometry.stroke\",\"stylers\":[{\"color\":\"#000000\"},{\"lightness\":17},{\"weight\":1.2}]},{\"featureType\":\"landscape\",\"elementType\":\"geometry\",\"stylers\":[{\"color\":\"#000000\"},{\"lightness\":20}]},{\"featureType\":\"landscape\",\"elementType\":\"geometry.fill\",\"stylers\":[{\"color\":\"#4d6059\"}]},{\"featureType\":\"landscape\",\"elementType\":\"geometry.stroke\",\"stylers\":[{\"color\":\"#4d6059\"}]},{\"featureType\":\"landscape.natural\",\"elementType\":\"geometry.fill\",\"stylers\":[{\"color\":\"#4d6059\"}]},{\"featureType\":\"poi\",\"elementType\":\"geometry\",\"stylers\":[{\"lightness\":21}]},{\"featureType\":\"poi\",\"elementType\":\"geometry.fill\",\"stylers\":[{\"color\":\"#4d6059\"}]},{\"featureType\":\"poi\",\"elementType\":\"geometry.stroke\",\"stylers\":[{\"color\":\"#4d6059\"}]},{\"featureType\":\"road\",\"elementType\":\"geometry\",\"stylers\":[{\"visibility\":\"on\"},{\"color\":\"#7f8d89\"}]},{\"featureType\":\"road\",\"elementType\":\"geometry.fill\",\"stylers\":[{\"color\":\"#7f8d89\"}]},{\"featureType\":\"road.highway\",\"elementType\":\"geometry.fill\",\"stylers\":[{\"color\":\"#7f8d89\"},{\"lightness\":17}]},{\"featureType\":\"road.highway\",\"elementType\":\"geometry.stroke\",\"stylers\":[{\"color\":\"#7f8d89\"},{\"lightness\":29},{\"weight\":0.2}]},{\"featureType\":\"road.arterial\",\"elementType\":\"geometry\",\"stylers\":[{\"color\":\"#000000\"},{\"lightness\":18}]},{\"featureType\":\"road.arterial\",\"elementType\":\"geometry.fill\",\"stylers\":[{\"color\":\"#7f8d89\"}]},{\"featureType\":\"road.arterial\",\"elementType\":\"geometry.stroke\",\"stylers\":[{\"color\":\"#7f8d89\"}]},{\"featureType\":\"road.local\",\"elementType\":\"geometry\",\"stylers\":[{\"color\":\"#000000\"},{\"lightness\":16}]},{\"featureType\":\"road.local\",\"elementType\":\"geometry.fill\",\"stylers\":[{\"color\":\"#7f8d89\"}]},{\"featureType\":\"road.local\",\"elementType\":\"geometry.stroke\",\"stylers\":[{\"color\":\"#7f8d89\"}]},{\"featureType\":\"transit\",\"elementType\":\"geometry\",\"stylers\":[{\"color\":\"#000000\"},{\"lightness\":19}]},{\"featureType\":\"water\",\"elementType\":\"all\",\"stylers\":[{\"color\":\"#2b3638\"},{\"visibility\":\"on\"}]},{\"featureType\":\"water\",\"elementType\":\"geometry\",\"stylers\":[{\"color\":\"#2b3638\"},{\"lightness\":17}]},{\"featureType\":\"water\",\"elementType\":\"geometry.fill\",\"stylers\":[{\"color\":\"#24282b\"}]},{\"featureType\":\"water\",\"elementType\":\"geometry.stroke\",\"stylers\":[{\"color\":\"#24282b\"}]},{\"featureType\":\"water\",\"elementType\":\"labels\",\"stylers\":[{\"visibility\":\"off\"}]},{\"featureType\":\"water\",\"elementType\":\"labels.text\",\"stylers\":[{\"visibility\":\"off\"}]},{\"featureType\":\"water\",\"elementType\":\"labels.text.fill\",\"stylers\":[{\"visibility\":\"off\"}]},{\"featureType\":\"water\",\"elementType\":\"labels.text.stroke\",\"stylers\":[{\"visibility\":\"off\"}]},{\"featureType\":\"water\",\"elementType\":\"labels.icon\",\"stylers\":[{\"visibility\":\"off\"}]}]","views":1298827,"favorites":4966,"createdBy":{"name":"Sarah Frisk","url":null},"createdOn":"2016-08-20T00:16:43.153","tags":["dark"],"colors":["gray","green"]},{"id":74,"name":"becomeadinosaur","description":"A clean and flat style.","url":"https://snazzymaps.com/style/74/becomeadinosaur","imageUrl":"https://snazzy-maps-cdn.azureedge.net/assets/74-becomeadinosaur.png?v=20170626082939","json":"[\r\n  {\r\n    \"elementType\": \"labels.text\",\r\n    \"stylers\": [\r\n      { \"visibility\": \"off\" }\r\n    ]\r\n  },{\r\n    \"featureType\": \"landscape.natural\",\r\n    \"elementType\": \"geometry.fill\",\r\n    \"stylers\": [\r\n      { \"color\": \"#f5f5f2\" },\r\n      { \"visibility\": \"on\" }\r\n    ]\r\n  },{\r\n    \"featureType\": \"administrative\",\r\n    \"stylers\": [\r\n      { \"visibility\": \"off\" }\r\n    ]\r\n  },{\r\n    \"featureType\": \"transit\",\r\n    \"stylers\": [\r\n      { \"visibility\": \"off\" }\r\n    ]\r\n  },{\r\n    \"featureType\": \"poi.attraction\",\r\n    \"stylers\": [\r\n      { \"visibility\": \"off\" }\r\n    ]\r\n  },{\r\n    \"featureType\": \"landscape.man_made\",\r\n    \"elementType\": \"geometry.fill\",\r\n    \"stylers\": [\r\n      { \"color\": \"#ffffff\" },\r\n      { \"visibility\": \"on\" }\r\n    ]\r\n  },{\r\n    \"featureType\": \"poi.business\",\r\n    \"stylers\": [\r\n      { \"visibility\": \"off\" }\r\n    ]\r\n  },{\r\n    \"featureType\": \"poi.medical\",\r\n    \"stylers\": [\r\n      { \"visibility\": \"off\" }\r\n    ]\r\n  },{\r\n    \"featureType\": \"poi.place_of_worship\",\r\n    \"stylers\": [\r\n      { \"visibility\": \"off\" }\r\n    ]\r\n  },{\r\n    \"featureType\": \"poi.school\",\r\n    \"stylers\": [\r\n      { \"visibility\": \"off\" }\r\n    ]\r\n  },{\r\n    \"featureType\": \"poi.sports_complex\",\r\n    \"stylers\": [\r\n      { \"visibility\": \"off\" }\r\n    ]\r\n  },{\r\n    \"featureType\": \"road.highway\",\r\n    \"elementType\": \"geometry\",\r\n    \"stylers\": [\r\n      { \"color\": \"#ffffff\" },\r\n      { \"visibility\": \"simplified\" }\r\n    ]\r\n  },{\r\n    \"featureType\": \"road.arterial\",\r\n    \"stylers\": [\r\n      { \"visibility\": \"simplified\" },\r\n      { \"color\": \"#ffffff\" }\r\n    ]\r\n  },{\r\n    \"featureType\": \"road.highway\",\r\n    \"elementType\": \"labels.icon\",\r\n    \"stylers\": [\r\n      { \"color\": \"#ffffff\" },\r\n      { \"visibility\": \"off\" }\r\n    ]\r\n  },{\r\n    \"featureType\": \"road.highway\",\r\n    \"elementType\": \"labels.icon\",\r\n    \"stylers\": [\r\n      { \"visibility\": \"off\" }\r\n    ]\r\n  },{\r\n    \"featureType\": \"road.arterial\",\r\n    \"stylers\": [\r\n      { \"color\": \"#ffffff\" }\r\n    ]\r\n  },{\r\n    \"featureType\": \"road.local\",\r\n    \"stylers\": [\r\n      { \"color\": \"#ffffff\" }\r\n    ]\r\n  },{\r\n    \"featureType\": \"poi.park\",\r\n    \"elementType\": \"labels.icon\",\r\n    \"stylers\": [\r\n      { \"visibility\": \"off\" }\r\n    ]\r\n  },{\r\n    \"featureType\": \"poi\",\r\n    \"elementType\": \"labels.icon\",\r\n    \"stylers\": [\r\n      { \"visibility\": \"off\" }\r\n    ]\r\n  },{\r\n    \"featureType\": \"water\",\r\n    \"stylers\": [\r\n      { \"color\": \"#71c8d4\" }\r\n    ]\r\n  },{\r\n    \"featureType\": \"landscape\",\r\n    \"stylers\": [\r\n      { \"color\": \"#e5e8e7\" }\r\n    ]\r\n  },{\r\n    \"featureType\": \"poi.park\",\r\n    \"stylers\": [\r\n      { \"color\": \"#8ba129\" }\r\n    ]\r\n  },{\r\n    \"featureType\": \"road\",\r\n    \"stylers\": [\r\n      { \"color\": \"#ffffff\" }\r\n    ]\r\n  },{\r\n    \"featureType\": \"poi.sports_complex\",\r\n    \"elementType\": \"geometry\",\r\n    \"stylers\": [\r\n      { \"color\": \"#c7c7c7\" },\r\n      { \"visibility\": \"off\" }\r\n    ]\r\n  },{\r\n    \"featureType\": \"water\",\r\n    \"stylers\": [\r\n      { \"color\": \"#a0d3d3\" }\r\n    ]\r\n  },{\r\n    \"featureType\": \"poi.park\",\r\n    \"stylers\": [\r\n      { \"color\": \"#91b65d\" }\r\n    ]\r\n  },{\r\n    \"featureType\": \"poi.park\",\r\n    \"stylers\": [\r\n      { \"gamma\": 1.51 }\r\n    ]\r\n  },{\r\n    \"featureType\": \"road.local\",\r\n    \"stylers\": [\r\n      { \"visibility\": \"off\" }\r\n    ]\r\n  },{\r\n    \"featureType\": \"road.local\",\r\n    \"elementType\": \"geometry\",\r\n    \"stylers\": [\r\n      { \"visibility\": \"on\" }\r\n    ]\r\n  },{\r\n    \"featureType\": \"poi.government\",\r\n    \"elementType\": \"geometry\",\r\n    \"stylers\": [\r\n      { \"visibility\": \"off\" }\r\n    ]\r\n  },{\r\n    \"featureType\": \"landscape\",\r\n    \"stylers\": [\r\n      { \"visibility\": \"off\" }\r\n    ]\r\n  },{\r\n    \"featureType\": \"road\",\r\n    \"elementType\": \"labels\",\r\n    \"stylers\": [\r\n      { \"visibility\": \"off\" }\r\n    ]\r\n  },{\r\n    \"featureType\": \"road.arterial\",\r\n    \"elementType\": \"geometry\",\r\n    \"stylers\": [\r\n      { \"visibility\": \"simplified\" }\r\n    ]\r\n  },{\r\n    \"featureType\": \"road.local\",\r\n    \"stylers\": [\r\n      { \"visibility\": \"simplified\" }\r\n    ]\r\n  },{\r\n    \"featureType\": \"road\"  },{\r\n    \"featureType\": \"road\"  },{\r\n  },{\r\n    \"featureType\": \"road.highway\"  }\r\n]","views":929628,"favorites":7793,"createdBy":{"name":"Anonymous","url":null},"createdOn":"2014-02-28T15:11:28.38","tags":["light","no-labels","simple"],"colors":["blue","gray","white"]},{"id":38,"name":"Shades of Grey","description":"A map with various shades of grey. Great for a website with a really dark theme. ","url":"https://snazzymaps.com/style/38/shades-of-grey","imageUrl":"https://snazzy-maps-cdn.azureedge.net/assets/38-shades-of-grey.png?v=20170626083726","json":"[{\"featureType\":\"all\",\"elementType\":\"labels.text.fill\",\"stylers\":[{\"saturation\":36},{\"color\":\"#000000\"},{\"lightness\":40}]},{\"featureType\":\"all\",\"elementType\":\"labels.text.stroke\",\"stylers\":[{\"visibility\":\"on\"},{\"color\":\"#000000\"},{\"lightness\":16}]},{\"featureType\":\"all\",\"elementType\":\"labels.icon\",\"stylers\":[{\"visibility\":\"off\"}]},{\"featureType\":\"administrative\",\"elementType\":\"geometry.fill\",\"stylers\":[{\"color\":\"#000000\"},{\"lightness\":20}]},{\"featureType\":\"administrative\",\"elementType\":\"geometry.stroke\",\"stylers\":[{\"color\":\"#000000\"},{\"lightness\":17},{\"weight\":1.2}]},{\"featureType\":\"landscape\",\"elementType\":\"geometry\",\"stylers\":[{\"color\":\"#000000\"},{\"lightness\":20}]},{\"featureType\":\"poi\",\"elementType\":\"geometry\",\"stylers\":[{\"color\":\"#000000\"},{\"lightness\":21}]},{\"featureType\":\"road.highway\",\"elementType\":\"geometry.fill\",\"stylers\":[{\"color\":\"#000000\"},{\"lightness\":17}]},{\"featureType\":\"road.highway\",\"elementType\":\"geometry.stroke\",\"stylers\":[{\"color\":\"#000000\"},{\"lightness\":29},{\"weight\":0.2}]},{\"featureType\":\"road.arterial\",\"elementType\":\"geometry\",\"stylers\":[{\"color\":\"#000000\"},{\"lightness\":18}]},{\"featureType\":\"road.local\",\"elementType\":\"geometry\",\"stylers\":[{\"color\":\"#000000\"},{\"lightness\":16}]},{\"featureType\":\"transit\",\"elementType\":\"geometry\",\"stylers\":[{\"color\":\"#000000\"},{\"lightness\":19}]},{\"featureType\":\"water\",\"elementType\":\"geometry\",\"stylers\":[{\"color\":\"#000000\"},{\"lightness\":17}]}]","views":894739,"favorites":2729,"createdBy":{"name":"Adam Krogh","url":"https://twitter.com/adamkrogh"},"createdOn":"2013-11-12T18:21:41.94","tags":["dark","greyscale"],"colors":["black","gray"]},{"id":24088,"name":"Map without labels","description":"Simple map with labels and texts turned off","url":"https://snazzymaps.com/style/24088/map-without-labels","imageUrl":"https://snazzy-maps-cdn.azureedge.net/assets/24088-map-without-labels.png?v=20170626073315","json":"[{\"featureType\":\"all\",\"elementType\":\"labels.text\",\"stylers\":[{\"visibility\":\"off\"}]},{\"featureType\":\"all\",\"elementType\":\"labels.icon\",\"stylers\":[{\"visibility\":\"off\"}]}]","views":858162,"favorites":1673,"createdBy":{"name":"Denis Ignatov","url":null},"createdOn":"2015-06-09T08:01:01.197","tags":["no-labels"],"colors":["multi"]},{"id":6376,"name":"Masik www","description":"simple","url":"https://snazzymaps.com/style/6376/masik-www","imageUrl":"https://snazzy-maps-cdn.azureedge.net/assets/6376-masik-www.png?v=20170626062301","json":"[{\"featureType\":\"administrative.province\",\"elementType\":\"all\",\"stylers\":[{\"visibility\":\"off\"}]},{\"featureType\":\"administrative.locality\",\"elementType\":\"labels\",\"stylers\":[{\"lightness\":\"-8\"}]},{\"featureType\":\"administrative.locality\",\"elementType\":\"labels.text.fill\",\"stylers\":[{\"color\":\"#000000\"}]},{\"featureType\":\"administrative.locality\",\"elementType\":\"labels.text.stroke\",\"stylers\":[{\"visibility\":\"off\"}]},{\"featureType\":\"administrative.neighborhood\",\"elementType\":\"all\",\"stylers\":[{\"color\":\"#acacac\"}]},{\"featureType\":\"administrative.neighborhood\",\"elementType\":\"labels.text.fill\",\"stylers\":[{\"color\":\"#484848\"}]},{\"featureType\":\"administrative.neighborhood\",\"elementType\":\"labels.text.stroke\",\"stylers\":[{\"color\":\"#ff0000\"},{\"visibility\":\"off\"}]},{\"featureType\":\"administrative.land_parcel\",\"elementType\":\"all\",\"stylers\":[{\"lightness\":\"-3\"}]},{\"featureType\":\"landscape\",\"elementType\":\"all\",\"stylers\":[{\"saturation\":-100},{\"lightness\":\"72\"},{\"visibility\":\"on\"}]},{\"featureType\":\"landscape\",\"elementType\":\"labels\",\"stylers\":[{\"lightness\":\"23\"}]},{\"featureType\":\"poi\",\"elementType\":\"all\",\"stylers\":[{\"saturation\":-100},{\"lightness\":\"30\"},{\"visibility\":\"off\"}]},{\"featureType\":\"road\",\"elementType\":\"all\",\"stylers\":[{\"lightness\":\"-19\"}]},{\"featureType\":\"road\",\"elementType\":\"geometry\",\"stylers\":[{\"lightness\":\"2\"},{\"gamma\":\"1.21\"}]},{\"featureType\":\"road\",\"elementType\":\"geometry.stroke\",\"stylers\":[{\"visibility\":\"off\"},{\"saturation\":\"15\"},{\"hue\":\"#ff0000\"}]},{\"featureType\":\"road\",\"elementType\":\"labels\",\"stylers\":[{\"lightness\":\"-43\"}]},{\"featureType\":\"road\",\"elementType\":\"labels.text\",\"stylers\":[{\"visibility\":\"on\"},{\"lightness\":\"22\"}]},{\"featureType\":\"road\",\"elementType\":\"labels.text.fill\",\"stylers\":[{\"weight\":\"0.12\"},{\"lightness\":\"-23\"},{\"visibility\":\"on\"}]},{\"featureType\":\"road\",\"elementType\":\"labels.text.stroke\",\"stylers\":[{\"visibility\":\"off\"},{\"lightness\":\"71\"}]},{\"featureType\":\"road\",\"elementType\":\"labels.icon\",\"stylers\":[{\"visibility\":\"on\"}]},{\"featureType\":\"road.highway\",\"elementType\":\"all\",\"stylers\":[{\"saturation\":-100},{\"visibility\":\"simplified\"}]},{\"featureType\":\"road.arterial\",\"elementType\":\"all\",\"stylers\":[{\"saturation\":-100},{\"lightness\":30},{\"visibility\":\"on\"}]},{\"featureType\":\"road.local\",\"elementType\":\"all\",\"stylers\":[{\"saturation\":-100},{\"lightness\":40},{\"visibility\":\"on\"}]},{\"featureType\":\"transit\",\"elementType\":\"all\",\"stylers\":[{\"saturation\":-100},{\"visibility\":\"simplified\"}]},{\"featureType\":\"transit\",\"elementType\":\"geometry.fill\",\"stylers\":[{\"saturation\":\"5\"},{\"visibility\":\"on\"},{\"lightness\":\"5\"}]},{\"featureType\":\"water\",\"elementType\":\"geometry\",\"stylers\":[{\"hue\":\"#ffff00\"},{\"lightness\":\"-24\"},{\"saturation\":-97}]},{\"featureType\":\"water\",\"elementType\":\"geometry.fill\",\"stylers\":[{\"saturation\":\"-88\"},{\"lightness\":\"-23\"},{\"visibility\":\"on\"}]},{\"featureType\":\"water\",\"elementType\":\"labels\",\"stylers\":[{\"visibility\":\"on\"},{\"lightness\":-25},{\"saturation\":-100}]},{\"featureType\":\"water\",\"elementType\":\"labels.text\",\"stylers\":[{\"weight\":\"0.01\"},{\"lightness\":\"9\"}]},{\"featureType\":\"water\",\"elementType\":\"labels.text.fill\",\"stylers\":[{\"lightness\":\"-32\"},{\"gamma\":\"2.99\"}]}]","views":848765,"favorites":1292,"createdBy":{"name":"giepe","url":null},"createdOn":"2015-01-27T11:01:54.983","tags":["greyscale"],"colors":["black","gray"]},{"id":287755,"name":"Grayscale Style","description":"Simple Grayscale style","url":"https://snazzymaps.com/style/287755/grayscale-style","imageUrl":"https://snazzy-maps-cdn.azureedge.net/assets/287755-grayscale-style.png?v=20191016073729","json":"[{\"featureType\":\"all\",\"elementType\":\"labels\",\"stylers\":[{\"visibility\":\"off\"}]},{\"featureType\":\"administrative\",\"elementType\":\"labels\",\"stylers\":[{\"visibility\":\"off\"}]},{\"featureType\":\"administrative\",\"elementType\":\"labels.text.fill\",\"stylers\":[{\"color\":\"#444444\"},{\"visibility\":\"off\"}]},{\"featureType\":\"administrative.neighborhood\",\"elementType\":\"labels\",\"stylers\":[{\"visibility\":\"off\"}]},{\"featureType\":\"landscape\",\"elementType\":\"all\",\"stylers\":[{\"visibility\":\"on\"},{\"color\":\"#e0dfe0\"}]},{\"featureType\":\"landscape\",\"elementType\":\"labels\",\"stylers\":[{\"visibility\":\"off\"}]},{\"featureType\":\"poi\",\"elementType\":\"all\",\"stylers\":[{\"visibility\":\"off\"}]},{\"featureType\":\"poi\",\"elementType\":\"labels\",\"stylers\":[{\"visibility\":\"off\"}]},{\"featureType\":\"poi.park\",\"elementType\":\"geometry\",\"stylers\":[{\"color\":\"#a8a9a8\"},{\"visibility\":\"on\"}]},{\"featureType\":\"road\",\"elementType\":\"all\",\"stylers\":[{\"saturation\":-100},{\"lightness\":45}]},{\"featureType\":\"road\",\"elementType\":\"geometry.fill\",\"stylers\":[{\"visibility\":\"on\"},{\"color\":\"#5b5b5a\"}]},{\"featureType\":\"road\",\"elementType\":\"labels\",\"stylers\":[{\"visibility\":\"off\"}]},{\"featureType\":\"road.highway\",\"elementType\":\"all\",\"stylers\":[{\"visibility\":\"simplified\"}]},{\"featureType\":\"road.highway\",\"elementType\":\"labels\",\"stylers\":[{\"visibility\":\"off\"}]},{\"featureType\":\"road.arterial\",\"elementType\":\"labels.icon\",\"stylers\":[{\"visibility\":\"off\"}]},{\"featureType\":\"transit\",\"elementType\":\"all\",\"stylers\":[{\"visibility\":\"off\"}]},{\"featureType\":\"transit\",\"elementType\":\"labels\",\"stylers\":[{\"visibility\":\"off\"}]},{\"featureType\":\"water\",\"elementType\":\"all\",\"stylers\":[{\"color\":\"#ffffff\"},{\"visibility\":\"on\"}]},{\"featureType\":\"water\",\"elementType\":\"labels\",\"stylers\":[{\"visibility\":\"off\"}]}]","views":781285,"favorites":4456,"createdBy":{"name":"Kees Plattel","url":null},"createdOn":"2019-10-16T19:32:37.567","tags":["greyscale","light","monochrome"],"colors":["gray"]},{"id":127403,"name":"No label Bright Colors","description":"A map without label and brighter colors. Simple and beautifull","url":"https://snazzymaps.com/style/127403/no-label-bright-colors","imageUrl":"https://snazzy-maps-cdn.azureedge.net/assets/127403-no-label-bright-colors.png?v=20171101110035","json":"[{\"featureType\":\"all\",\"elementType\":\"all\",\"stylers\":[{\"saturation\":\"32\"},{\"lightness\":\"-3\"},{\"visibility\":\"on\"},{\"weight\":\"1.18\"}]},{\"featureType\":\"administrative\",\"elementType\":\"labels\",\"stylers\":[{\"visibility\":\"off\"}]},{\"featureType\":\"landscape\",\"elementType\":\"labels\",\"stylers\":[{\"visibility\":\"off\"}]},{\"featureType\":\"landscape.man_made\",\"elementType\":\"all\",\"stylers\":[{\"saturation\":\"-70\"},{\"lightness\":\"14\"}]},{\"featureType\":\"poi\",\"elementType\":\"labels\",\"stylers\":[{\"visibility\":\"off\"}]},{\"featureType\":\"road\",\"elementType\":\"labels\",\"stylers\":[{\"visibility\":\"off\"}]},{\"featureType\":\"transit\",\"elementType\":\"labels\",\"stylers\":[{\"visibility\":\"off\"}]},{\"featureType\":\"water\",\"elementType\":\"all\",\"stylers\":[{\"saturation\":\"100\"},{\"lightness\":\"-14\"}]},{\"featureType\":\"water\",\"elementType\":\"labels\",\"stylers\":[{\"visibility\":\"off\"},{\"lightness\":\"12\"}]}]","views":733433,"favorites":2005,"createdBy":{"name":"beniamino nobile","url":"http://www.beniaminonobile.me"},"createdOn":"2017-11-01T23:00:30.207","tags":["colorful","no-labels","simple"],"colors":["blue","multi"]},{"id":144886,"name":".","description":".","url":"https://snazzymaps.com/style/144886","imageUrl":"https://snazzy-maps-cdn.azureedge.net/assets/144886-.png?v=20180311020225","json":"[{\"featureType\":\"all\",\"elementType\":\"labels\",\"stylers\":[{\"visibility\":\"off\"},{\"color\":\"#f49f53\"}]},{\"featureType\":\"all\",\"elementType\":\"labels.text\",\"stylers\":[{\"visibility\":\"simplified\"}]},{\"featureType\":\"landscape\",\"elementType\":\"all\",\"stylers\":[{\"color\":\"#f9ddc5\"},{\"lightness\":-7}]},{\"featureType\":\"poi.business\",\"elementType\":\"all\",\"stylers\":[{\"color\":\"#645c20\"},{\"lightness\":38}]},{\"featureType\":\"poi.government\",\"elementType\":\"all\",\"stylers\":[{\"color\":\"#9e5916\"},{\"lightness\":46}]},{\"featureType\":\"poi.medical\",\"elementType\":\"geometry.fill\",\"stylers\":[{\"color\":\"#813033\"},{\"lightness\":38},{\"visibility\":\"off\"}]},{\"featureType\":\"poi.park\",\"elementType\":\"all\",\"stylers\":[{\"color\":\"#645c20\"},{\"lightness\":39}]},{\"featureType\":\"poi.school\",\"elementType\":\"all\",\"stylers\":[{\"color\":\"#a95521\"},{\"lightness\":35}]},{\"featureType\":\"poi.sports_complex\",\"elementType\":\"all\",\"stylers\":[{\"color\":\"#9e5916\"},{\"lightness\":32}]},{\"featureType\":\"road\",\"elementType\":\"all\",\"stylers\":[{\"color\":\"#813033\"},{\"lightness\":43}]},{\"featureType\":\"road.local\",\"elementType\":\"geometry.fill\",\"stylers\":[{\"color\":\"#f19f53\"},{\"weight\":1.3},{\"visibility\":\"on\"},{\"lightness\":16}]},{\"featureType\":\"road.local\",\"elementType\":\"geometry.stroke\",\"stylers\":[{\"color\":\"#f19f53\"},{\"lightness\":-10}]},{\"featureType\":\"transit\",\"elementType\":\"all\",\"stylers\":[{\"lightness\":38}]},{\"featureType\":\"transit.line\",\"elementType\":\"all\",\"stylers\":[{\"color\":\"#813033\"},{\"lightness\":22}]},{\"featureType\":\"transit.station\",\"elementType\":\"all\",\"stylers\":[{\"visibility\":\"off\"}]},{\"featureType\":\"water\",\"elementType\":\"all\",\"stylers\":[{\"color\":\"#1994bf\"},{\"saturation\":-69},{\"gamma\":0.99},{\"lightness\":43}]}]","views":647835,"favorites":719,"createdBy":{"name":"Robert","url":null},"createdOn":"2018-03-11T14:02:19.637","tags":["colorful"],"colors":["orange"]}]}